{
	"HANOI": {
		"name": "H\u00e0 N\u1ed9i",
		"cities": {
			"QUANBADINH": "Qu\u1eadn Ba \u0110\u00ecnh",
			"QUANHOANKIEM": "Qu\u1eadn Ho\u00e0n Ki\u1ebfm",
			"QUANHAIBATRUNG": "Qu\u1eadn Hai B\u00e0 Tr\u01b0ng",
			"QUANDONGDA": "Qu\u1eadn \u0110\u1ed1ng \u0110a",
			"QUANTAYHO": "Qu\u1eadn T\u00e2y H\u1ed3",
			"QUANCAUGIAY": "Qu\u1eadn C\u1ea7u Gi\u1ea5y",
			"QUANTHANHXUAN": "Qu\u1eadn Thanh Xu\u00e2n",
			"QUANHOANGMAI": "Qu\u1eadn Ho\u00e0ng Mai",
			"QUANLONGBIEN": "Qu\u1eadn Long Bi\u00ean",
			"HUYENTULIEM": "Huy\u1ec7n T\u1eeb Li\u00eam",
			"HUYENTHANHTRI": "Huy\u1ec7n Thanh Tr\u00ec",
			"HUYENGIALAM": "Huy\u1ec7n Gia L\u00e2m",
			"HUYENDONGANH": "Huy\u1ec7n \u0110\u00f4ng Anh",
			"HUYENSOCSON": "Huy\u1ec7n S\u00f3c S\u01a1n",
			"QUANHADONG": "Qu\u1eadn H\u00e0 \u0110\u00f4ng",
			"THIXASONTAY": "Th\u1ecb x\u00e3 S\u01a1n T\u00e2y",
			"HUYENBAVI": "Huy\u1ec7n Ba V\u00ec",
			"HUYENPHUCTHO": "Huy\u1ec7n Ph\u00fac Th\u1ecd",
			"HUYENTHACHTHAT": "Huy\u1ec7n Th\u1ea1ch Th\u1ea5t",
			"HUYENQUOCOAI": "Huy\u1ec7n Qu\u1ed1c Oai",
			"HUYENCHUONGMY": "Huy\u1ec7n Ch\u01b0\u01a1ng M\u1ef9",
			"HUYENDANPHUONG": "Huy\u1ec7n \u0110an Ph\u01b0\u1ee3ng",
			"HUYENHOAIDUC": "Huy\u1ec7n Ho\u00e0i \u0110\u1ee9c",
			"HUYENTHANHOAI": "Huy\u1ec7n Thanh Oai",
			"HUYENMYDUC": "Huy\u1ec7n M\u1ef9 \u0110\u1ee9c",
			"HUYENUNGHOA": "Huy\u1ec7n \u1ee8ng Ho\u00e0",
			"HUYENTHUONGTIN": "Huy\u1ec7n Th\u01b0\u1eddng T\u00edn",
			"HUYENPHUXUYEN": "Huy\u1ec7n Ph\u00fa Xuy\u00ean",
			"HUYENMELINH": "Huy\u1ec7n M\u00ea Linh",
			"HANOIKHAC": "Qu\u1eadn/Huy\u1ec7n kh\u00e1c"
		}
	},
	"HOCHIMINH": {
		"name": "Thành phố Hồ Chí Minh",
		"cities": {
			"QUAN1": "Qu\u1eadn 1",
			"QUAN2": "Qu\u1eadn 2",
			"QUAN3": "Qu\u1eadn 3",
			"QUAN4": "Qu\u1eadn 4",
			"QUAN5": "Qu\u1eadn 5",
			"QUAN6": "Qu\u1eadn 6",
			"QUAN7": "Qu\u1eadn 7",
			"QUAN8": "Qu\u1eadn 8",
			"QUAN9": "Qu\u1eadn 9",
			"QUAN10": "Qu\u1eadn 10",
			"QUAN11": "Qu\u1eadn 11",
			"QUAN12": "Qu\u1eadn 12",
			"QUANGOVAP": "Qu\u1eadn G\u00f2 V\u1ea5p",
			"QUANTANBINH": "Qu\u1eadn T\u00e2n B\u00ecnh",
			"QUANTANPHU": "Qu\u1eadn T\u00e2n Ph\u00fa",
			"QUANBINHTHANH": "Qu\u1eadn B\u00ecnh Th\u1ea1nh",
			"QUANPHUNHUAN": "Qu\u1eadn Ph\u00fa Nhu\u1eadn",
			"QUANTHUDUC": "Qu\u1eadn Th\u1ee7 \u0110\u1ee9c",
			"QUANBINHTAN": "Qu\u1eadn B\u00ecnh T\u00e2n",
			"HUYENBINHCHANH": "Huy\u1ec7n B\u00ecnh Ch\u00e1nh",
			"HUYENCUCHI": "Huy\u1ec7n C\u1ee7 Chi",
			"HUYENHOCMON": "Huy\u1ec7n H\u00f3c M\u00f4n",
			"HUYENNHABE": "Huy\u1ec7n Nh\u00e0 B\u00e8",
			"HUYENCANGIO": "Huy\u1ec7n C\u1ea7n Gi\u1edd",
			"HOCHIMINHKHAC": "Qu\u1eadn/Huy\u1ec7n kh\u00e1c"
		}
	},
	"HAIPHONG": {
		"name": "Th\u00e0nh ph\u1ed1 H\u1ea3i Ph\u00f2ng",
		"cities": {
			"QUANHONGBANG": "Qu\u1eadn H\u1ed3ng B\u00e0ng",
			"QUANLECHAN": "Qu\u1eadn L\u00ea Ch\u00e2n",
			"QUANNGOQUYEN": "Qu\u1eadn Ng\u00f4 Quy\u1ec1n",
			"QUANKIENAN": "Qu\u1eadn Ki\u1ebfn An",
			"QUANHAIAN": "Qu\u1eadn H\u1ea3i An",
			"QUANDOSON": "Qu\u1eadn \u0110\u1ed3 S\u01a1n",
			"HUYENANLAO": "Huy\u1ec7n An L\u00e3o",
			"HUYENKIENTHUY": "Huy\u1ec7n Ki\u1ebfn Th\u1ee5y",
			"HUYENTHUYNGUYEN": "Huy\u1ec7n Th\u1ee7y Nguy\u00ean",
			"HUYENANDUONG": "Huy\u1ec7n An D\u01b0\u01a1ng",
			"HUYENTIENLANG": "Huy\u1ec7n Ti\u00ean L\u00e3ng",
			"HUYENVINHBAO": "Huy\u1ec7n V\u0129nh B\u1ea3o",
			"HUYENCATHAI": "Huy\u1ec7n C\u00e1t H\u1ea3i",
			"HUYENBACHLONGVI": "Huy\u1ec7n B\u1ea1ch Long V\u0129",
			"QUANDUONGKINH": "Qu\u1eadn D\u01b0\u01a1ng Kinh",
			"HAIPHONGKHAC": "Qu\u1eadn/Huy\u1ec7n kh\u00e1c"
		}
	},
	"DANANG": {
		"name": "Th\u00e0nh Ph\u1ed1 \u0110\u00e0 N\u1eb5ng",
		"cities": {
			"QUANHAICHAU": "Qu\u1eadn H\u1ea3i Ch\u00e2u",
			"QUANTHANHKHE": "Qu\u1eadn Thanh Kh\u00ea",
			"QUANSONTRA": "Qu\u1eadn S\u01a1n Tr\u00e0",
			"QUANNGUHANHSON": "Qu\u1eadn Ng\u0169 H\u00e0nh S\u01a1n",
			"QUANLIENCHIEU": "Qu\u1eadn Li\u00ean Chi\u1ec3u",
			"HUYENHOAVANG": "Huy\u1ec7n Ho\u00e0 Vang",
			"QUANCAMLE": "Qu\u1eadn C\u1ea9m L\u1ec7",
			"DANANGKHAC": "Qu\u1eadn/Huy\u1ec7n kh\u00e1c"
		}
	},
	"HAGIANG": {
		"name": "T\u1ec9nh H\u00e0 Giang",
		"cities": {
			"THANHPHOHAGIANG": "Th\u00e0nh ph\u1ed1 H\u00e0 Giang",
			"HUYENDONGVAN": "Huy\u1ec7n \u0110\u1ed3ng V\u0103n",
			"HUYENMEOVAC": "Huy\u1ec7n M\u00e8o V\u1ea1c",
			"HUYENYENMINH": "Huy\u1ec7n Y\u00ean Minh",
			"HUYENQUANBA": "Huy\u1ec7n Qu\u1ea3n B\u1ea1",
			"HUYENVIXUYEN": "Huy\u1ec7n V\u1ecb Xuy\u00ean",
			"HUYENBACME": "Huy\u1ec7n B\u1eafc M\u00ea",
			"HUYENHOANGSUPHI": "Huy\u1ec7n Ho\u00e0ng Su Ph\u00ec",
			"HUYENXINMAN": "Huy\u1ec7n X\u00edn M\u1ea7n",
			"HUYENBACQUANG": "Huy\u1ec7n B\u1eafc Quang",
			"HUYENQUANGBINH": "Huy\u1ec7n Quang B\u00ecnh",
			"HAGIANGKHAC": "Qu\u1eadn/Huy\u1ec7n kh\u00e1c"
		}
	},
	"CAOBANG": {
		"name": "T\u1ec9nh Cao B\u1eb1ng",
		"cities": {
			"THANHPHOCAOBANG": "Th\u00e0nh ph\u1ed1 Cao B\u1eb1ng",
			"HUYENBAOLAC": "Huy\u1ec7n B\u1ea3o L\u1ea1c",
			"HUYENTHONGNONG": "Huy\u1ec7n Th\u00f4ng N\u00f4ng",
			"HUYENHAQUANG": "Huy\u1ec7n H\u00e0 Qu\u1ea3ng",
			"HUYENTRALINH": "Huy\u1ec7n Tr\u00e0 L\u0129nh",
			"HUYENTRUNGKHANH": "Huy\u1ec7n Tr\u00f9ng Kh\u00e1nh",
			"HUYENNGUYENBINH": "Huy\u1ec7n Nguy\u00ean B\u00ecnh",
			"HUYENHOAAN": "Huy\u1ec7n Ho\u00e0 An",
			"HUYENQUANGUYEN": "Huy\u1ec7n Qu\u1ea3ng Uy\u00ean",
			"HUYENTHACHAN": "Huy\u1ec7n Th\u1ea1ch An",
			"HUYENHALANG": "Huy\u1ec7n H\u1ea1 Lang",
			"HUYENBAOLAM": "Huy\u1ec7n B\u1ea3o L\u00e2m",
			"HUYENPHUCHOA": "Huy\u1ec7n Ph\u1ee5c Ho\u00e0",
			"CAOBANGKHAC": "Qu\u1eadn/Huy\u1ec7n kh\u00e1c"
		}
	},
	"LAICHAU": {
		"name": "T\u1ec9nh Lai Ch\u00e2u",
		"cities": {
			"THANHPHOLAICHAU": "Th\u00e0nh Ph\u1ed1 Lai Ch\u00e2u",
			"HUYENTAMDUONG": "Huy\u1ec7n Tam \u0110\u01b0\u1eddng",
			"HUYENPHONGTHO": "Huy\u1ec7n Phong Th\u1ed5",
			"HUYENSINHO": "Huy\u1ec7n S\u00ecn H\u1ed3",
			"HUYENMUONGTE": "Huy\u1ec7n M\u01b0\u1eddng T\u00e8",
			"HUYENTHANUYEN": "Huy\u1ec7n Than Uy\u00ean",
			"HUYENTANUYEN": "Huy\u1ec7n T\u00e2n Uy\u00ean",
			"HUYENNAMNHUM": "Huy\u1ec7n N\u1eadm Nh\u00f9m",
			"LAICHAUKHAC": "Qu\u1eadn/Huy\u1ec7n kh\u00e1c"
		}
	},
	"LAOCAI": {
		"name": "T\u1ec9nh L\u00e0o Cai",
		"cities": {
			"THANHPHOLAOCAI": "Th\u00e0nh ph\u1ed1 L\u00e0o Cai",
			"HUYENXIMACAI": "Huy\u1ec7n Xi Ma Cai",
			"HUYENBATXAT": "Huy\u1ec7n B\u00e1t X\u00e1t",
			"HUYENBAOTHANG": "Huy\u1ec7n B\u1ea3o Th\u1eafng",
			"HUYENSAPA": "Huy\u1ec7n Sa Pa",
			"HUYENVANBAN": "Huy\u1ec7n V\u0103n B\u00e0n",
			"HUYENBAOYEN": "Huy\u1ec7n B\u1ea3o Y\u00ean",
			"HUYENBACHA": "Huy\u1ec7n B\u1eafc H\u00e0",
			"HUYENMUONGKHUONG": "Huy\u1ec7n M\u01b0\u1eddng Kh\u01b0\u01a1ng",
			"LAOCAIKHAC": "Qu\u1eadn/Huy\u1ec7n kh\u00e1c"
		}
	},
	"TUYENQUANG": {
		"name": "T\u1ec9nh Tuy\u00ean Quang",
		"cities": {
			"TH.PHOTUYENQUANG": "Th. ph\u1ed1 Tuy\u00ean Quang",
			"HUYENLAMBINH": "Huy\u1ec7n L\u00e2m B\u00ecnh",
			"HUYENNAHANG": "Huy\u1ec7n Na Hang",
			"HUYENCHIEMHOA": "Huy\u1ec7n Chi\u00eam Ho\u00e1",
			"HUYENHAMYEN": "Huy\u1ec7n H\u00e0m Y\u00ean",
			"HUYENYENSON": "Huy\u1ec7n Y\u00ean S\u01a1n",
			"HUYENSONDUONG": "Huy\u1ec7n S\u01a1n D\u01b0\u01a1ng",
			"TUYENQUANGKHAC": "Qu\u1eadn/Huy\u1ec7n kh\u00e1c"
		}
	},
	"LANGSON": {
		"name": "T\u1ec9nh L\u1ea1ng S\u01a1n",
		"cities": {
			"THANHPHOLANGSON": "Th\u00e0nh ph\u1ed1 L\u1ea1ng S\u01a1n",
			"HUYENTRANGDINH": "Huy\u1ec7n Tr\u00e0ng \u0110\u1ecbnh",
			"HUYENBINHGIA": "Huy\u1ec7n B\u00ecnh Gia",
			"HUYENVANLANG": "Huy\u1ec7n V\u0103n L\u00e3ng",
			"HUYENBACSON": "Huy\u1ec7n B\u1eafc S\u01a1n",
			"HUYENVANQUAN": "Huy\u1ec7n V\u0103n Quan",
			"HUYENCAOLOC": "Huy\u1ec7n Cao L\u1ed9c",
			"HUYENLOCBINH": "Huy\u1ec7n L\u1ed9c B\u00ecnh",
			"HUYENCHILANG": "Huy\u1ec7n Chi L\u0103ng",
			"HUYENDINHLAP": "Huy\u1ec7n \u0110\u00ecnh L\u1eadp",
			"HUYENHUULUNG": "Huy\u1ec7n H\u1eefu L\u0169ng",
			"LANGSONKHAC": "Qu\u1eadn/Huy\u1ec7n kh\u00e1c"
		}
	},
	"BACKAN": {
		"name": "T\u1ec9nh B\u1eafc K\u1ea1n",
		"cities": {
			"THIXABACKAN": "Th\u1ecb x\u00e3 B\u1eafc K\u1ea1n",
			"HUYENCHODON": "Huy\u1ec7n Ch\u1ee3 \u0110\u1ed3n",
			"HUYENBACHTHONG": "Huy\u1ec7n B\u1ea1ch Th\u00f4ng",
			"HUYENNARI": "Huy\u1ec7n Na R\u00ec",
			"HUYENNGANSON": "Huy\u1ec7n Ng\u00e2n S\u01a1n",
			"HUYENBABE": "Huy\u1ec7n Ba B\u1ec3",
			"HUYENCHOMOI": "Huy\u1ec7n Ch\u1ee3 M\u1edbi",
			"HUYENPACNAM": "Huy\u1ec7n P\u00e1c N\u1eb7m",
			"BACKANKHAC": "Qu\u1eadn/Huy\u1ec7n kh\u00e1c"
		}
	},
	"THAINGUYEN": {
		"name": "T\u1ec9nh Th\u00e1i Nguy\u00ean",
		"cities": {
			"THANHPHOTHAINGUYEN": "Th\u00e0nh ph\u1ed1 Th\u00e1i Nguy\u00ean",
			"THIXASONGCONG": "Th\u1ecb x\u00e3 S\u00f4ng C\u00f4ng",
			"HUYENDINHHOA": "Huy\u1ec7n \u0110\u1ecbnh Ho\u00e1",
			"HUYENPHULUONG": "Huy\u1ec7n Ph\u00fa L\u01b0\u01a1ng",
			"HUYENVONHAI": "Huy\u1ec7n V\u00f5 Nhai",
			"HUYENDAITU": "Huy\u1ec7n \u0110\u1ea1i T\u1eeb",
			"HUYENDONGHY": "Huy\u1ec7n \u0110\u1ed3ng H\u1ef7",
			"HUYENPHUBINH": "Huy\u1ec7n Ph\u00fa B\u00ecnh",
			"HUYENPHOYEN": "Huy\u1ec7n Ph\u1ed5 Y\u00ean",
			"THAINGUYENKHAC": "Qu\u1eadn/Huy\u1ec7n kh\u00e1c"
		}
	},
	"YENBAI": {
		"name": "T\u1ec9nh Y\u00ean B\u00e1i",
		"cities": {
			"THANHPHOYENBAI": "Th\u00e0nh ph\u1ed1 Y\u00ean B\u00e1i",
			"THIXANGHIALO": "Th\u1ecb x\u00e3 Ngh\u0129a L\u1ed9",
			"HUYENVANYEN": "Huy\u1ec7n V\u0103n Y\u00ean",
			"HUYENYENBINH": "Huy\u1ec7n Y\u00ean B\u00ecnh",
			"HUYENMUCANGCHAI": "Huy\u1ec7n M\u00f9 Cang Ch\u1ea3i",
			"HUYENVANCHAN": "Huy\u1ec7n V\u0103n Ch\u1ea5n",
			"HUYENTRANYEN": "Huy\u1ec7n Tr\u1ea5n Y\u00ean",
			"HUYENTRAMTAU": "Huy\u1ec7n Tr\u1ea1m T\u1ea5u",
			"HUYENLUCYEN": "Huy\u1ec7n L\u1ee5c Y\u00ean",
			"YENBAIKHAC": "Qu\u1eadn/Huy\u1ec7n kh\u00e1c"
		}
	},
	"SONLA": {
		"name": "T\u1ec9nh S\u01a1n La",
		"cities": {
			"THANHPHOSONLA": "Th\u00e0nh ph\u1ed1 S\u01a1n La",
			"HUYENQUYNHNHAI": "Huy\u1ec7n Qu\u1ef3nh Nhai",
			"HUYENMUONGLA": "Huy\u1ec7n M\u01b0\u1eddng La",
			"HUYENTHUANCHAU": "Huy\u1ec7n Thu\u1eadn Ch\u00e2u",
			"HUYENBACYEN": "Huy\u1ec7n B\u1eafc Y\u00ean",
			"HUYENPHUYEN": "Huy\u1ec7n Ph\u00f9 Y\u00ean",
			"HUYENMAISON": "Huy\u1ec7n Mai S\u01a1n",
			"HUYENYENCHAU": "Huy\u1ec7n Y\u00ean Ch\u00e2u",
			"HUYENSONGMA": "Huy\u1ec7n S\u00f4ng M\u00e3",
			"HUYENMOCCHAU": "Huy\u1ec7n M\u1ed9c Ch\u00e2u",
			"HUYENSOPCOP": "huy\u1ec7n S\u1ed1p C\u1ed9p",
			"HUYENVANHO": "Huy\u1ec7n V\u00e2n H\u1ed3",
			"SONLAKHAC": "Qu\u1eadn/Huy\u1ec7n kh\u00e1c"
		}
	},
	"PHUTHO": {
		"name": "T\u1ec9nh Ph\u00fa Th\u1ecd",
		"cities": {
			"THANHPHOVIETTRI": "Th\u00e0nh ph\u1ed1 Vi\u1ec7t Tr\u00ec",
			"THIXAPHUTHO": "Th\u1ecb x\u00e3 Ph\u00fa Th\u1ecd",
			"HUYENDOANHUNG": "Huy\u1ec7n \u0110oan H\u00f9ng",
			"HUYENTHANHBA": "Huy\u1ec7n Thanh Ba",
			"HUYENHAHOA": "Huy\u1ec7n H\u1ea1 Ho\u00e0",
			"HUYENCAMKHE": "Huy\u1ec7n C\u1ea9m Kh\u00ea",
			"HUYENYENLAP": "Huy\u1ec7n Y\u00ean L\u1eadp",
			"HUYENTHANHSON": "Huy\u1ec7n Thanh S\u01a1n",
			"HUYENPHUNINH": "Huy\u1ec7n Ph\u00f9 Ninh",
			"HUYENLAMTHAO": "Huy\u1ec7n L\u00e2m Thao",
			"HUYENTAMNONG": "Huy\u1ec7n Tam N\u00f4ng",
			"HUYENTHANHTHUY": "Huy\u1ec7n Thanh Th\u1ee7y",
			"HUYENTANSON": "Huy\u1ec7n T\u00e2n S\u01a1n",
			"PHUTHOKHAC": "Qu\u1eadn/Huy\u1ec7n kh\u00e1c"
		}
	},
	"VINHPHUC": {
		"name": "T\u1ec9nh V\u0129nh Ph\u00fac",
		"cities": {
			"THANHPHOVINHYEN": "Th\u00e0nh ph\u1ed1 V\u0129nh Y\u00ean",
			"HUYENTAMDUONG": "Huy\u1ec7n Tam D\u01b0\u01a1ng",
			"HUYENLAPTHACH": "Huy\u1ec7n L\u1eadp Th\u1ea1ch",
			"HUYENVINHTUONG": "Huy\u1ec7n V\u0129nh T\u01b0\u1eddng",
			"HUYENYENLAC": "Huy\u1ec7n Y\u00ean L\u1ea1c",
			"HUYENBINHXUYEN": "Huy\u1ec7n B\u00ecnh Xuy\u00ean",
			"HUYENSONGLO": "Huy\u1ec7n S\u00f4ng L\u00f4",
			"THIXAPHUCYEN": "Th\u1ecb x\u00e3 Ph\u00fac Y\u00ean",
			"HUYENTAMDAO": "Huy\u1ec7n Tam \u0110\u1ea3o",
			"VINHPHUCKHAC": "Qu\u1eadn/Huy\u1ec7n kh\u00e1c"
		}
	},
	"QUANGNINH": {
		"name": "T\u1ec9nh Qu\u1ea3ng Ninh",
		"cities": {
			"THANHPHOHALONG": "Th\u00e0nh ph\u1ed1 H\u1ea1 Long",
			"THANHPHOCAMPHA": "Th\u00e0nh ph\u1ed1 C\u1ea9m Ph\u1ea3",
			"THANHPHOUONGBI": "Th\u00e0nh ph\u1ed1 U\u00f4ng B\u00ed",
			"THANHPHOMONGCAI": "Th\u00e0nh ph\u1ed1 M\u00f3ng C\u00e1i",
			"HUYENBINHLIEU": "Huy\u1ec7n B\u00ecnh Li\u00eau",
			"HUYENDAMHA": "Huy\u1ec7n \u0110\u1ea7m H\u00e0",
			"HUYENHAIHA": "Huy\u1ec7n H\u1ea3i H\u00e0",
			"HUYENTIENYEN": "Huy\u1ec7n Ti\u00ean Y\u00ean",
			"HUYENBACHE": "Huy\u1ec7n Ba Ch\u1ebd",
			"HUYENDONGTRIEU": "Huy\u1ec7n \u0110\u00f4ng Tri\u1ec1u",
			"THIXAQUANGYEN": "Th\u1ecb x\u00e3 Qu\u1ea3ng Y\u00ean",
			"HUYENHOANHBO": "Huy\u1ec7n Ho\u00e0nh B\u1ed3",
			"HUYENVANDON": "Huy\u1ec7n V\u00e2n \u0110\u1ed3n",
			"HUYENCOTO": "Huy\u1ec7n C\u00f4 T\u00f4",
			"QUANGNINHKHAC": "Qu\u1eadn/Huy\u1ec7n kh\u00e1c"
		}
	},
	"BACGIANG": {
		"name": "T\u1ec9nh B\u1eafc Giang",
		"cities": {
			"THANHPHOBACGIANG": "Th\u00e0nh ph\u1ed1 B\u1eafc Giang",
			"HUYENYENTHE": "Huy\u1ec7n Y\u00ean Th\u1ebf",
			"HUYENLUCNGAN": "Huy\u1ec7n L\u1ee5c Ng\u1ea1n",
			"HUYENSONDONG": "Huy\u1ec7n S\u01a1n \u0110\u1ed9ng",
			"HUYENLUCNAM": "Huy\u1ec7n L\u1ee5c Nam",
			"HUYENTANYEN": "Huy\u1ec7n T\u00e2n Y\u00ean",
			"HUYENHIEPHOA": "Huy\u1ec7n Hi\u1ec7p Ho\u00e0",
			"HUYENLANGGIANG": "Huy\u1ec7n L\u1ea1ng Giang",
			"HUYENVIETYEN": "Huy\u1ec7n Vi\u1ec7t Y\u00ean",
			"HUYENYENDUNG": "Huy\u1ec7n Y\u00ean D\u0169ng",
			"BACGIANGKHAC": "Qu\u1eadn/Huy\u1ec7n kh\u00e1c"
		}
	},
	"BACNINH": {
		"name": "T\u1ec9nh B\u1eafc Ninh",
		"cities": {
			"THANHPHOBACNINH": "Th\u00e0nh ph\u1ed1 B\u1eafc Ninh",
			"HUYENYENPHONG": "Huy\u1ec7n Y\u00ean Phong",
			"HUYENQUEVO": "Huy\u1ec7n Qu\u1ebf V\u00f5",
			"HUYENTIENDU": "Huy\u1ec7n Ti\u00ean Du",
			"THIXATUSON": "Th\u1ecb x\u00e3 T\u1eeb S\u01a1n",
			"HUYENTHUANTHANH": "Huy\u1ec7n Thu\u1eadn Th\u00e0nh",
			"HUYENGIABINH": "Huy\u1ec7n Gia B\u00ecnh",
			"HUYENLUONGTAI": "Huy\u1ec7n L\u01b0\u01a1ng T\u00e0i",
			"BACNINHKHAC": "Qu\u1eadn/Huy\u1ec7n kh\u00e1c"
		}
	},
	"HAIDUONG": {
		"name": "T\u1ec9nh H\u1ea3i D\u01b0\u01a1ng",
		"cities": {
			"THANHPHOHAIDUONG": "Th\u00e0nh ph\u1ed1 H\u1ea3i D\u01b0\u01a1ng",
			"THIXACHILINH": "Th\u1ecb x\u00e3 Ch\u00ed Linh",
			"HUYENNAMSACH": "Huy\u1ec7n Nam S\u00e1ch",
			"HUYENKINHMON": "Huy\u1ec7n Kinh M\u00f4n",
			"HUYENGIALOC": "Huy\u1ec7n Gia L\u1ed9c",
			"HUYENTUKY": "Huy\u1ec7n T\u1ee9 K\u1ef3",
			"HUYENTHANHMIEN": "Huy\u1ec7n Thanh Mi\u1ec7n",
			"HUYENNINHGIANG": "Huy\u1ec7n Ninh Giang",
			"HUYENCAMGIANG": "Huy\u1ec7n C\u1ea9m Gi\u00e0ng",
			"HUYENTHANHHA": "Huy\u1ec7n Thanh H\u00e0",
			"HUYENKIMTHANH": "Huy\u1ec7n Kim Th\u00e0nh",
			"HUYENBINHGIANG": "Huy\u1ec7n B\u00ecnh Giang",
			"HAIDUONGKHAC": "Qu\u1eadn/Huy\u1ec7n kh\u00e1c"
		}
	},
	"HUNGYEN": {
		"name": "T\u1ec9nh H\u01b0ng Y\u00ean",
		"cities": {
			"THANHPHOHUNGYEN": "Th\u00e0nh ph\u1ed1 H\u01b0ng Y\u00ean",
			"HUYENKIMDONG": "Huy\u1ec7n Kim \u0110\u1ed9ng",
			"HUYENANTHI": "Huy\u1ec7n \u00c2n Thi",
			"HUYENKHOAICHAU": "Huy\u1ec7n Kho\u00e1i Ch\u00e2u",
			"HUYENYENMY": "Huy\u1ec7n Y\u00ean M\u1ef9",
			"HUYENTIENLU": "Huy\u1ec7n Ti\u00ean L\u1eef",
			"HUYENPHUCU": "Huy\u1ec7n Ph\u00f9 C\u1eeb",
			"HUYENMYHAO": "Huy\u1ec7n M\u1ef9 H\u00e0o",
			"HUYENVANLAM": "Huy\u1ec7n V\u0103n L\u00e2m",
			"HUYENVANGIANG": "Huy\u1ec7n V\u0103n Giang",
			"HUNGYENKHAC": "Qu\u1eadn/Huy\u1ec7n kh\u00e1c"
		}
	},
	"HOABINH": {
		"name": "T\u1ec9nh H\u00f2a B\u00ecnh",
		"cities": {
			"THANHPHOHOABINH": "Th\u00e0nh ph\u1ed1 Ho\u00e0 B\u00ecnh",
			"HUYENDABAC": "Huy\u1ec7n \u0110\u00e0 B\u1eafc",
			"HUYENMAICHAU": "Huy\u1ec7n Mai Ch\u00e2u",
			"HUYENTANLAC": "Huy\u1ec7n T\u00e2n L\u1ea1c",
			"HUYENLACSON": "Huy\u1ec7n L\u1ea1c S\u01a1n",
			"HUYENKYSON": "Huy\u1ec7n K\u1ef3 S\u01a1n",
			"HUYENLU\u00adONGSON": "Huy\u1ec7n L\u01b0\u00ad\u01a1ng S\u01a1n",
			"HUYENKIMBOI": "Huy\u1ec7n Kim B\u00f4i",
			"HUYENLACTHUY": "Huy\u1ec7n L\u1ea1c Thu\u1ef7",
			"HUYENYENTHUY": "Huy\u1ec7n Y\u00ean Thu\u1ef7",
			"HUYENCAOPHONG": "Huy\u1ec7n Cao Phong",
			"HOABINHKHAC": "Qu\u1eadn/Huy\u1ec7n kh\u00e1c"
		}
	},
	"HANAM": {
		"name": "Tỉnh Hà Nam",
		"cities": {
			"THANHPHOPHULY": "Th\u00e0nh ph\u1ed1 Ph\u1ee7 L\u00fd",
			"HUYENDUYTIEN": "Huy\u1ec7n Duy Ti\u00ean",
			"HUYENKIMBANG": "Huy\u1ec7n Kim B\u1ea3ng",
			"HUYENLYNHAN": "Huy\u1ec7n L\u00fd Nh\u00e2n",
			"HUYENTHANHLIEM": "Huy\u1ec7n Thanh Li\u00eam",
			"HUYENBINHLUC": "Huy\u1ec7n B\u00ecnh L\u1ee5c",
			"HANAMKHAC": "Qu\u1eadn/Huy\u1ec7n kh\u00e1c"
		}
	},
	"NAMDINH": {
		"name": "T\u1ec9nh Nam \u0110\u1ecbnh",
		"cities": {
			"THANHPHONAMDINH": "Th\u00e0nh ph\u1ed1 Nam \u0110\u1ecbnh",
			"HUYENMYLOC": "Huy\u1ec7n M\u1ef9 L\u1ed9c",
			"HUYENXUANTRUONG": "Huy\u1ec7n Xu\u00e2n Tr\u01b0\u1eddng",
			"HUYENGIAOTHUY": "Huy\u1ec7n Giao Th\u1ee7y",
			"HUYENYYEN": "Huy\u1ec7n \u00dd Y\u00ean",
			"HUYENVUBAN": "Huy\u1ec7n V\u1ee5 B\u1ea3n",
			"HUYENNAMTRUC": "Huy\u1ec7n Nam Tr\u1ef1c",
			"HUYENTRUCNINH": "Huy\u1ec7n Tr\u1ef1c Ninh",
			"HUYENNGHIAHUNG": "Huy\u1ec7n Ngh\u0129a H\u01b0ng",
			"HUYENHAIHAU": "Huy\u1ec7n H\u1ea3i H\u1eadu",
			"NAMDINHKHAC": "Qu\u1eadn/Huy\u1ec7n kh\u00e1c"
		}
	},
	"THAIBINH": {
		"name": "T\u1ec9nh Th\u00e1i B\u00ecnh",
		"cities": {
			"THANHPHOTHAIBINH": "Th\u00e0nh ph\u1ed1 Th\u00e1i B\u00ecnh",
			"HUYENQUYNHPHU": "Huy\u1ec7n Qu\u1ef3nh Ph\u1ee5",
			"HUYENHUNGHA": "Huy\u1ec7n H\u01b0ng H\u00e0",
			"HUYENDONGHUNG": "Huy\u1ec7n \u0110\u00f4ng H\u01b0ng",
			"HUYENVUTHU": "Huy\u1ec7n V\u0169 Th\u01b0",
			"HUYENKIENXUONG": "Huy\u1ec7n Ki\u1ebfn X\u01b0\u01a1ng",
			"HUYENTIENHAI": "Huy\u1ec7n Ti\u1ec1n H\u1ea3i",
			"HUYENTHAITHUY": "Huy\u1ec7n Th\u00e1i Thu\u1ef5",
			"THAIBINHKHAC": "Qu\u1eadn/Huy\u1ec7n kh\u00e1c"
		}
	},
	"NINHBINH": {
		"name": "T\u1ec9nh Ninh B\u00ecnh",
		"cities": {
			"THANHPHONINHBINH": "Th\u00e0nh ph\u1ed1 Ninh B\u00ecnh",
			"THIXATAMDIEP": "Th\u1ecb x\u00e3 Tam \u0110i\u1ec7p",
			"HUYENNHOQUAN": "Huy\u1ec7n Nho Quan",
			"HUYENGIAVIEN": "Huy\u1ec7n Gia Vi\u1ec5n",
			"HUYENHOALU": "Huy\u1ec7n Hoa L\u01b0",
			"HUYENYENMO": "Huy\u1ec7n Y\u00ean M\u00f4",
			"HUYENKIMSON": "Huy\u1ec7n Kim S\u01a1n",
			"HUYENYENKHANH": "Huy\u1ec7n Y\u00ean Kh\u00e1nh",
			"NINHBINHKHAC": "Qu\u1eadn/Huy\u1ec7n kh\u00e1c"
		}
	},
	"THANHHOA": {
		"name": "T\u1ec9nh Thanh H\u00f3a",
		"cities": {
			"THANHPHOTHANHHOA": "Th\u00e0nh ph\u1ed1 Thanh Ho\u00e1",
			"THIXABIMSON": "Th\u1ecb x\u00e3 B\u1ec9m S\u01a1n",
			"THIXASAMSON": "Th\u1ecb x\u00e3 S\u1ea7m S\u01a1n",
			"HUYENQUANHOA": "Huy\u1ec7n Quan Ho\u00e1",
			"HUYENQUANSON": "Huy\u1ec7n Quan S\u01a1n",
			"HUYENMUONGLAT": "Huy\u1ec7n M\u01b0\u1eddng L\u00e1t",
			"HUYENBATHUOC": "Huy\u1ec7n B\u00e1 Th\u01b0\u1edbc",
			"HUYENTHUONGXUAN": "Huy\u1ec7n Th\u01b0\u1eddng Xu\u00e2n",
			"HUYENNHUXUAN": "Huy\u1ec7n Nh\u01b0 Xu\u00e2n",
			"HUYENNHUTHANH": "Huy\u1ec7n Nh\u01b0 Thanh",
			"HUYENLANGCHANH": "Huy\u1ec7n Lang Ch\u00e1nh",
			"HUYENNGOCLAC": "Huy\u1ec7n Ng\u1ecdc L\u1eb7c",
			"HUYENTHACHTHANH": "Huy\u1ec7n Th\u1ea1ch Th\u00e0nh",
			"HUYENCAMTHUY": "Huy\u1ec7n C\u1ea9m Th\u1ee7y",
			"HUYENTHOXUAN": "Huy\u1ec7n Th\u1ecd Xu\u00e2n",
			"HUYENVINHLOC": "Huy\u1ec7n V\u0129nh L\u1ed9c",
			"HUYENTHIEUHOA": "Huy\u1ec7n Thi\u1ec7u Ho\u00e1",
			"HUYENTRIEUSON": "Huy\u1ec7n Tri\u1ec7u S\u01a1n",
			"HUYENNONGCONG": "Huy\u1ec7n N\u00f4ng C\u1ed1ng",
			"HUYENDONGSON": "Huy\u1ec7n \u0110\u00f4ng S\u01a1n",
			"HUYENHATRUNG": "Huy\u1ec7n H\u00e0 Trung",
			"HUYENHOANGHOA": "Huy\u1ec7n Ho\u1eb1ng Ho\u00e1",
			"HUYENNGASON": "Huy\u1ec7n Nga S\u01a1n",
			"HUYENHAULOC": "Huy\u1ec7n H\u1eadu L\u1ed9c",
			"HUYENQUANGXUONG": "Huy\u1ec7n Qu\u1ea3ng X\u01b0\u01a1ng",
			"HUYENTINHGIA": "Huy\u1ec7n T\u0129nh Gia",
			"HUYENYENDINH": "Huy\u1ec7n Y\u00ean \u0110\u1ecbnh",
			"THANHHOAKHAC": "Qu\u1eadn/Huy\u1ec7n kh\u00e1c"
		}
	},
	"NGHEAN": {
		"name": "T\u1ec9nh Ngh\u1ec7 An",
		"cities": {
			"THANHPHOVINH": "Th\u00e0nh ph\u1ed1 Vinh",
			"THIXACUALO": "Th\u1ecb x\u00e3 C\u1eeda L\u00f2",
			"HUYENQUYCHAU": "Huy\u1ec7n Qu\u1ef3 Ch\u00e2u",
			"HUYENQUYHOP": "Huy\u1ec7n Qu\u1ef3 H\u1ee3p",
			"HUYENNGHIADAN": "Huy\u1ec7n Ngh\u0129a \u0110\u00e0n",
			"HUYENQUYNHLUU": "Huy\u1ec7n Qu\u1ef3nh L\u01b0u",
			"HUYENKYSON": "Huy\u1ec7n K\u1ef3 S\u01a1n",
			"HUYENTUONGDUONG": "Huy\u1ec7n T\u01b0\u01a1ng D\u01b0\u01a1ng",
			"HUYENCONCUONG": "Huy\u1ec7n Con Cu\u00f4ng",
			"HUYENTANKY": "Huy\u1ec7n T\u00e2n K\u1ef3",
			"HUYENYENTHANH": "Huy\u1ec7n Y\u00ean Th\u00e0nh",
			"HUYENDIENCHAU": "Huy\u1ec7n Di\u1ec5n Ch\u00e2u",
			"HUYENANHSON": "Huy\u1ec7n Anh S\u01a1n",
			"HUYENDOLUONG": "Huy\u1ec7n \u0110\u00f4 L\u01b0\u01a1ng",
			"HUYENTHANHCHUONG": "Huy\u1ec7n Thanh Ch\u01b0\u01a1ng",
			"HUYENNGHILOC": "Huy\u1ec7n Nghi L\u1ed9c",
			"HUYENNAMDAN": "Huy\u1ec7n Nam \u0110\u00e0n",
			"HUYENHUNGNGUYEN": "Huy\u1ec7n H\u01b0ng Nguy\u00ean",
			"HUYENQUEPHONG": "Huy\u1ec7n Qu\u1ebf Phong",
			"THIXATHAIHOA": "Th\u1ecb X\u00e3 Th\u00e1i H\u00f2a",
			"THIXAHOANGMAI": "Th\u1ecb X\u00e3 Ho\u00e0ng Mai",
			"NGHEANKHAC": "Qu\u1eadn/Huy\u1ec7n kh\u00e1c"
		}
	},
	"HATINH": {
		"name": "T\u1ec9nh H\u00e0 T\u0129nh",
		"cities": {
			"THANHPHOHATINH": "Th\u00e0nh ph\u1ed1 H\u00e0 T\u0129nh",
			"THIXAHONGLINH": "Th\u1ecb x\u00e3 H\u1ed3ng L\u0129nh",
			"HUYENHUONGSON": "Huy\u1ec7n H\u01b0\u01a1ng S\u01a1n",
			"HUYENDUCTHO": "Huy\u1ec7n \u0110\u1ee9c Th\u1ecd",
			"HUYENNGHIXUAN": "Huy\u1ec7n Nghi Xu\u00e2n",
			"HUYENCANLOC": "Huy\u1ec7n Can L\u1ed9c",
			"HUYENHUONGKHE": "Huy\u1ec7n H\u01b0\u01a1ng Kh\u00ea",
			"HUYENTHACHHA": "Huy\u1ec7n Th\u1ea1ch H\u00e0",
			"HUYENCAMXUYEN": "Huy\u1ec7n C\u1ea9m Xuy\u00ean",
			"HUYENKYANH": "Huy\u1ec7n K\u1ef3 Anh",
			"HUYENVUQUANG": "Huy\u1ec7n V\u0169 Quang",
			"HUYENLOCHA": "Huy\u1ec7n L\u1ed9c H\u00e0",
			"HATINHKHAC": "Qu\u1eadn/Huy\u1ec7n kh\u00e1c"
		}
	},
	"QUANGBINH": {
		"name": "T\u1ec9nh Qu\u1ea3ng B\u00ecnh",
		"cities": {
			"THANHPHODONGHOI": "Th\u00e0nh ph\u1ed1 \u0110\u1ed3ng H\u1edbi",
			"HUYENTUYENHOA": "Huy\u1ec7n Tuy\u00ean Ho\u00e1",
			"HUYENMINHHOA": "Huy\u1ec7n Minh Ho\u00e1",
			"HUYENQUANGTRACH": "Huy\u1ec7n Qu\u1ea3ng Tr\u1ea1ch",
			"HUYENBOTRACH": "Huy\u1ec7n B\u1ed1 Tr\u1ea1ch",
			"HUYENQUANGNINH": "Huy\u1ec7n Qu\u1ea3ng Ninh",
			"HUYENLETHUY": "Huy\u1ec7n L\u1ec7 Thu\u1ef7",
			"QUANGBINHKHAC": "Qu\u1eadn/Huy\u1ec7n kh\u00e1c"
		}
	},
	"QUANGTRI": {
		"name": "T\u1ec9nh Qu\u1ea3ng Tr\u1ecb",
		"cities": {
			"THANHPHODONGHA": "Th\u00e0nh ph\u1ed1 \u0110\u00f4ng H\u00e0",
			"THIXAQUANGTRI": "Th\u1ecb x\u00e3 Qu\u1ea3ng Tr\u1ecb",
			"HUYENVINHLINH": "Huy\u1ec7n V\u0129nh Linh",
			"HUYENGIOLINH": "Huy\u1ec7n Gio Linh",
			"HUYENCAMLO": "Huy\u1ec7n Cam L\u1ed9",
			"HUYENTRIEUPHONG": "Huy\u1ec7n Tri\u1ec7u Phong",
			"HUYENHAILANG": "Huy\u1ec7n H\u1ea3i L\u0103ng",
			"HUYENHUONGHOA": "Huy\u1ec7n H\u01b0\u1edbng H\u00f3a",
			"HUYENDAKRONG": "Huy\u1ec7n \u0110\u0103k R\u00f4ng",
			"HUYENDAOCONCO": "Huy\u1ec7n \u0111\u1ea3o C\u1ed3n C\u1ecf",
			"QUANGTRIKHAC": "Qu\u1eadn/Huy\u1ec7n kh\u00e1c"
		}
	},
	"THUATHIENHUE": {
		"name": "T\u1ec9nh Th\u1eeba Thi\u00ean Hu\u1ebf",
		"cities": {
			"THANHPHOHUE": "Th\u00e0nh ph\u1ed1 Hu\u1ebf",
			"HUYENPHONGDIEN": "Huy\u1ec7n Phong \u0110i\u1ec1n",
			"HUYENQUANGDIEN": "Huy\u1ec7n Qu\u1ea3ng \u0110i\u1ec1n",
			"THIXAHUONGTRA": "Th\u1ecb x\u00e3 H\u01b0\u01a1ng Tr\u00e0",
			"HUYENPHUVANG": "Huy\u1ec7n Ph\u00fa Vang",
			"THIXAHUONGTHUY": "Th\u1ecb x\u00e3 H\u01b0\u01a1ng Th\u1ee7y",
			"HUYENPHULOC": "Huy\u1ec7n Ph\u00fa L\u1ed9c",
			"HUYENNAMDONG": "Huy\u1ec7n Nam \u0110\u00f4ng",
			"HUYENALUOI": "Huy\u1ec7n A L\u01b0\u1edbi",
			"THUATHIENHUEKHAC": "Qu\u1eadn/Huy\u1ec7n kh\u00e1c"
		}
	},
	"QUANGNAM": {
		"name": "T\u1ec9nh Qu\u1ea3ng Nam",
		"cities": {
			"THANHPHOTAMKY": "Th\u00e0nh ph\u1ed1 Tam K\u1ef3",
			"THANHPHOHOIAN": "Th\u00e0nh ph\u1ed1 H\u1ed9i An",
			"HUYENDUYXUYEN": "Huy\u1ec7n Duy Xuy\u00ean",
			"HUYENDIENBAN": "Huy\u1ec7n \u0110i\u1ec7n B\u00e0n",
			"HUYENDAILOC": "Huy\u1ec7n \u0110\u1ea1i L\u1ed9c",
			"HUYENQUESON": "Huy\u1ec7n Qu\u1ebf S\u01a1n",
			"HUYENHIEPDUC": "Huy\u1ec7n Hi\u1ec7p \u0110\u1ee9c",
			"HUYENTHANGBINH": "Huy\u1ec7n Th\u0103ng B\u00ecnh",
			"HUYENNUITHANH": "Huy\u1ec7n N\u00fai Th\u00e0nh",
			"HUYENTIENPHUOC": "Huy\u1ec7n Ti\u00ean Ph\u01b0\u1edbc",
			"HUYENBACTRAMY": "Huy\u1ec7n B\u1eafc Tr\u00e0 My",
			"HUYENDONGGIANG": "Huy\u1ec7n \u0110\u00f4ng Giang",
			"HUYENNAMGIANG": "Huy\u1ec7n Nam Giang",
			"HUYENPHUOCSON": "Huy\u1ec7n Ph\u01b0\u1edbc S\u01a1n",
			"HUYENNAMTRAMY": "Huy\u1ec7n Nam Tr\u00e0 My",
			"HUYENTAYGIANG": "Huy\u1ec7n T\u00e2y Giang",
			"HUYENPHUNINH": "Huy\u1ec7n Ph\u00fa Ninh",
			"HUYENNONGSON": "Huy\u1ec7n N\u00f4ng S\u01a1n",
			"QUANGNAMKHAC": "Qu\u1eadn/Huy\u1ec7n kh\u00e1c"
		}
	},
	"QUANGNGAI": {
		"name": "T\u1ec9nh Qu\u1ea3ng Ng\u00e3i",
		"cities": {
			"THANHPHOQUANGNGAI": "Th\u00e0nh ph\u1ed1 Qu\u1ea3ng Ng\u00e3i",
			"HUYENLYSON": "Huy\u1ec7n L\u00fd S\u01a1n",
			"HUYENBINHSON": "Huy\u1ec7n B\u00ecnh S\u01a1n",
			"HUYENTRABONG": "Huy\u1ec7n Tr\u00e0 B\u1ed3ng",
			"HUYENSONTINH": "Huy\u1ec7n S\u01a1n T\u1ecbnh",
			"HUYENSONHA": "Huy\u1ec7n S\u01a1n H\u00e0",
			"HUYENTUNGHIA": "Huy\u1ec7n T\u01b0 Ngh\u0129a",
			"HUYENNGHIAHANH": "Huy\u1ec7n Ngh\u0129a H\u00e0nh",
			"HUYENMINHLONG": "Huy\u1ec7n Minh Long",
			"HUYENMODUC": "Huy\u1ec7n M\u1ed9 \u0110\u1ee9c",
			"HUYENDUCPHO": "Huy\u1ec7n \u0110\u1ee9c Ph\u1ed5",
			"HUYENBATO": "Huy\u1ec7n Ba T\u01a1",
			"HUYENSONTAY": "Huy\u1ec7n S\u01a1n T\u00e2y",
			"HUYENTAYTRA": "Huy\u1ec7n T\u00e2y Tr\u00e0",
			"QUANGNGAIKHAC": "Qu\u1eadn/Huy\u1ec7n kh\u00e1c"
		}
	},
	"KONTUM": {
		"name": "T\u1ec9nh Kon Tum",
		"cities": {
			"THANHPHOKONTUM": "Th\u00e0nh ph\u1ed1 Kon Tum",
			"HUYENDAKGLEI": "Huy\u1ec7n \u0110\u0103k Glei",
			"HUYENNGOCHOI": "Huy\u1ec7n Ng\u1ecdc H\u1ed3i",
			"HUYENDAKTO": "Huy\u1ec7n \u0110\u0103k T\u00f4",
			"HUYENSATHAY": "Huy\u1ec7n Sa Th\u1ea7y",
			"HUYENKONPLONG": "Huy\u1ec7n Kon Pl\u00f4ng",
			"HUYENDAKHA": "Huy\u1ec7n \u0110\u0103k H\u00e0",
			"HUYENKONRAY": "Huy\u1ec7n Kon R\u1eaby",
			"HUYENTUMORONG": "Huy\u1ec7n Tu M\u01a1 R\u00f4ng",
			"KONTUMKHAC": "Qu\u1eadn/Huy\u1ec7n kh\u00e1c"
		}
	},
	"BINHDINH": {
		"name": "T\u1ec9nh B\u00ecnh \u0110\u1ecbnh",
		"cities": {
			"THANHPHOQUYNHON": "Th\u00e0nh ph\u1ed1 Quy Nh\u01a1n",
			"HUYENANLAO": "Huy\u1ec7n An L\u00e3o",
			"HUYENHOAIAN": "Huy\u1ec7n Ho\u00e0i \u00c2n",
			"HUYENHOAINHON": "Huy\u1ec7n Ho\u00e0i Nh\u01a1n",
			"HUYENPHUMY": "Huy\u1ec7n Ph\u00f9 M\u1ef9",
			"HUYENPHUCAT": "Huy\u1ec7n Ph\u00f9 C\u00e1t",
			"HUYENVINHTHANH": "Huy\u1ec7n V\u0129nh Th\u1ea1nh",
			"HUYENTAYSON": "Huy\u1ec7n T\u00e2y S\u01a1n",
			"HUYENVANCANH": "Huy\u1ec7n V\u00e2n Canh",
			"THIXAANNHON": "Th\u1ecb x\u00e3 An Nh\u01a1n",
			"HUYENTUYPHUOC": "Huy\u1ec7n Tuy Ph\u01b0\u1edbc",
			"BINHDINHKHAC": "Qu\u1eadn/Huy\u1ec7n kh\u00e1c"
		}
	},
	"GIALAI": {
		"name": "T\u1ec9nh Gia Lai",
		"cities": {
			"THANHPHOPLEIKU": "Th\u00e0nh ph\u1ed1 Pleiku",
			"HUYENCHUPAH": "Huy\u1ec7n Ch\u01b0 P\u0103h",
			"HUYENMANGYANG": "Huy\u1ec7n Mang Yang",
			"HUYENKBANG": "Huy\u1ec7n Kbang",
			"THIXAANKHE": "Th\u1ecb x\u00e3 An Kh\u00ea",
			"HUYENKONGCHRO": "Huy\u1ec7n K\u00f4ng Chro",
			"HUYENDUCCO": "Huy\u1ec7n \u0110\u1ee9c C\u01a1",
			"HUYENCHUPRONG": "Huy\u1ec7n Ch\u01b0 Pr\u00f4ng",
			"HUYENCHUSE": "Huy\u1ec7n Ch\u01b0 S\u00ea",
			"THIXAAYUNPA": "Th\u1ecb x\u00e3 Ayun Pa",
			"HUYENKRONGPA": "Huy\u1ec7n Kr\u00f4ng Pa",
			"HUYENIAGRAI": "Huy\u1ec7n Ia Grai",
			"HUYENDAKDOA": "Huy\u1ec7n \u0110ak \u0110oa",
			"HUYENIAPA": "Huy\u1ec7n Ia Pa",
			"HUYENDAKPO": "Huy\u1ec7n \u0110ak P\u01a1",
			"HUYENPHUTHIEN": "Huy\u1ec7n Ph\u00fa Thi\u1ec7n",
			"HUYENCHUPUH": "Huy\u1ec7n Ch\u01b0 P\u01b0h",
			"GIALAIKHAC": "Qu\u1eadn/Huy\u1ec7n kh\u00e1c"
		}
	},
	"PHUYEN": {
		"name": "T\u1ec9nh Ph\u00fa Y\u00ean",
		"cities": {
			"THANHPHOTUYHOA": "Th\u00e0nh ph\u1ed1 Tuy H\u00f2a",
			"HUYENDONGXUAN": "Huy\u1ec7n \u0110\u1ed3ng Xu\u00e2n",
			"THIXASONGCAU": "Th\u1ecb X\u00e3 S\u00f4ng C\u1ea7u",
			"HUYENTUYAN": "Huy\u1ec7n Tuy An",
			"HUYENSONHOA": "Huy\u1ec7n S\u01a1n H\u00f2a",
			"HUYENSONGHINH": "Huy\u1ec7n S\u00f4ng Hinh",
			"HUYENDONGHOA": "Huy\u1ec7n \u0110\u00f4ng H\u00f2a",
			"HUYENPHUHOA": "Huy\u1ec7n Ph\u00fa H\u00f2a",
			"HUYENTAYHOA": "Huy\u1ec7n T\u00e2y H\u00f2a",
			"PHUYENKHAC": "Qu\u1eadn/Huy\u1ec7n kh\u00e1c"
		}
	},
	"DAKLAK": {
		"name": "T\u1ec9nh \u0110\u0103k L\u0103k",
		"cities": {
			"THANHPHOBUONMATHUOT": "Th\u00e0nh ph\u1ed1 Bu\u00f4n Ma Thu\u1ed9t",
			"HUYENEAHLEO": "Huy\u1ec7n Ea H Leo",
			"HUYENKRONGBUK": "Huy\u1ec7n Kr\u00f4ng Buk",
			"HUYENKRONGNANG": "Huy\u1ec7n Kr\u00f4ng N\u0103ng",
			"HUYENEASUP": "Huy\u1ec7n Ea S\u00fap",
			"HUYENCUMGAR": "Huy\u1ec7n C\u01b0 Mgar",
			"HUYENKRONGPAC": "Huy\u1ec7n Kr\u00f4ng P\u1eafc",
			"HUYENEAKAR": "Huy\u1ec7n Ea Kar",
			"HUYENMDRAK": "Huy\u1ec7n M \u0110r\u0103k",
			"HUYENKRONGANA": "Huy\u1ec7n Kr\u00f4ng Ana",
			"HUYENKRONGBONG": "Huy\u1ec7n Kr\u00f4ng B\u00f4ng",
			"HUYENLAK": "Huy\u1ec7n L\u0103k",
			"HUYENBUONDON": "Huy\u1ec7n Bu\u00f4n \u0110\u00f4n",
			"HUYENCUKUIN": "Huy\u1ec7n C\u01b0 Kuin",
			"THIXABUONHO": "Th\u1ecb X\u00e3 Bu\u00f4n H\u1ed3",
			"DAKLAKKHAC": "Qu\u1eadn/Huy\u1ec7n kh\u00e1c"
		}
	},
	"KHANHHOA": {
		"name": "T\u1ec9nh Kh\u00e1nh H\u00f2a",
		"cities": {
			"THANHPHONHATRANG": "Th\u00e0nh ph\u1ed1 Nha Trang",
			"HUYENVANNINH": "Huy\u1ec7n V\u1ea1n Ninh",
			"HUYENNINHHOA": "Huy\u1ec7n Ninh Ho\u00e0",
			"HUYENDIENKHANH": "Huy\u1ec7n Di\u00ean Kh\u00e1nh",
			"HUYENKHANHVINH": "Huy\u1ec7n Kh\u00e1nh V\u0129nh",
			"THIXACAMRANH": "Th\u1ecb x\u00e3 Cam Ranh",
			"HUYENKHANHSON": "Huy\u1ec7n Kh\u00e1nh S\u01a1n",
			"HUYENDAOTRUONGSA": "Huy\u1ec7n \u0111\u1ea3o Tr\u01b0\u1eddng Sa",
			"HUYENCAMLAM": "Huy\u1ec7n Cam L\u00e2m",
			"KHANHHOAKHAC": "Qu\u1eadn/Huy\u1ec7n kh\u00e1c"
		}
	},
	"LAMDONG": {
		"name": "T\u1ec9nh L\u00e2m \u0110\u1ed3ng",
		"cities": {
			"THANHPHODALAT": "Th\u00e0nh ph\u1ed1 \u0110\u00e0 L\u1ea1t",
			"THANHPHOBAOLOC": "Th\u00e0nh ph\u1ed1 B\u1ea3o L\u1ed9c",
			"HUYENDUCTRONG": "Huy\u1ec7n \u0110\u1ee9c Tr\u1ecdng",
			"HUYENDILINH": "Huy\u1ec7n Di Linh",
			"HUYENDONDUONG": "Huy\u1ec7n \u0110\u01a1n D\u01b0\u01a1ng",
			"HUYENLACDUONG": "Huy\u1ec7n L\u1ea1c D\u01b0\u01a1ng",
			"HUYENDAHUOAI": "Huy\u1ec7n \u0110\u1ea1 Huoai",
			"HUYENDATEH": "Huy\u1ec7n \u0110\u1ea1 T\u1ebbh",
			"HUYENCATTIEN": "Huy\u1ec7n C\u00e1t Ti\u00ean",
			"HUYENLAMHA": "Huy\u1ec7n L\u00e2m H\u00e0",
			"HUYENBAOLAM": "Huy\u1ec7n B\u1ea3o L\u00e2m",
			"HUYENDAMRONG": "Huy\u1ec7n \u0110am R\u00f4ng",
			"LAMDONGKHAC": "Qu\u1eadn/Huy\u1ec7n kh\u00e1c"
		}
	},
	"BINHPHUOC": {
		"name": "B\u00ecnh Ph\u01b0\u1edbc",
		"cities": {
			"THIXADONGXOAI": "Th\u1ecb x\u00e3 \u0110\u1ed3ng Xo\u00e0i",
			"HUYENDONGPHU": "Huy\u1ec7n \u0110\u1ed3ng Ph\u00fa",
			"HUYENCHONTHANH": "Huy\u1ec7n Ch\u01a1n Th\u00e0nh",
			"HUYENBINHLONG": "Huy\u1ec7n B\u00ecnh Long",
			"HUYENLOCNINH": "Huy\u1ec7n L\u1ed9c Ninh",
			"HUYENBUDOP": "Huy\u1ec7n B\u00f9 \u0110\u1ed1p",
			"HUYENPHUOCLONG": "Huy\u1ec7n Ph\u01b0\u1edbc Long",
			"HUYENBUDANG": "Huy\u1ec7n B\u00f9 \u0110\u0103ng",
			"HUYENHONQUAN": "Huy\u1ec7n H\u1edbn Qu\u1ea3n",
			"HUYENBUGIAMAP": "Huy\u1ec7n B\u00f9 Gia M\u1eadp",
			"BINHPHUOCKHAC": "Qu\u1eadn/Huy\u1ec7n kh\u00e1c"
		}
	},
	"BINHDUONG": {
		"name": "T\u1ec9nh B\u00ecnh D\u01b0\u01a1ng",
		"cities": {
			"THPHOTHUDAUMOT": "Th. ph\u1ed1 Th\u1ee7 D\u1ea7u M\u1ed9t",
			"HUYENBENCAT": "Huy\u1ec7n B\u1ebfn C\u00e1t",
			"HUYENTANUYEN": "Huy\u1ec7n T\u00e2n Uy\u00ean",
			"THIXATHUANAN": "Th\u1ecb x\u00e3 Thu\u1eadn An",
			"THIXADIAN": "Th\u1ecb x\u00e3 D\u0129 An",
			"HUYENPHUGIAO": "Huy\u1ec7n Ph\u00fa Gi\u00e1o",
			"HUYENDAUTIENG": "Huy\u1ec7n D\u1ea7u Ti\u1ebfng",
			"BINHDUONGKHAC": "Qu\u1eadn/Huy\u1ec7n kh\u00e1c"
		}
	},
	"NINHTHUAN": {
		"name": "T\u1ec9nh Ninh Thu\u1eadn",
		"cities": {
			"THANHPHOPHANRANGTHAPCHAM": "Th\u00e0nh ph\u1ed1 Phan Rang -Th\u00e1p Ch\u00e0m",
			"HUYENNINHSON": "Huy\u1ec7n Ninh S\u01a1n",
			"HUYENNINHHAI": "Huy\u1ec7n Ninh H\u1ea3i",
			"HUYENNINHPHUOC": "Huy\u1ec7n Ninh Ph\u01b0\u1edbc",
			"HUYENBACAI": "Huy\u1ec7n B\u00e1c \u00c1i",
			"HUYENTHUANBAC": "Huy\u1ec7n Thu\u1eadn B\u1eafc",
			"HUYENTHUANNAM": "Huy\u1ec7n Thu\u1eadn Nam",
			"NINHTHUANKHAC": "Qu\u1eadn/Huy\u1ec7n kh\u00e1c"
		}
	},
	"TAYNINH": {
		"name": "T\u1ec9nh T\u00e2y Ninh",
		"cities": {
			"THIXATAYNINH": "Th\u1ecb x\u00e3 T\u00e2y Ninh",
			"HUYENTANBIEN": "Huy\u1ec7n T\u00e2n Bi\u00ean",
			"HUYENTANCHAU": "Huy\u1ec7n T\u00e2n Ch\u00e2u",
			"HUYENDUONGMINHCHAU": "Huy\u1ec7n D\u01b0\u01a1ng Minh Ch\u00e2u",
			"HUYENCHAUTHANH": "Huy\u1ec7n Ch\u00e2u Th\u00e0nh",
			"HUYENHOATHANH": "Huy\u1ec7n H\u00f2a Th\u00e0nh",
			"HUYENBENCAU": "Huy\u1ec7n B\u1ebfn C\u1ea7u",
			"HUYENGODAU": "Huy\u1ec7n G\u00f2 D\u1ea7u",
			"HUYENTRANGBANG": "Huy\u1ec7n Tr\u1ea3ng B\u00e0ng",
			"TAYNINHKHAC": "Qu\u1eadn/Huy\u1ec7n kh\u00e1c"
		}
	},
	"BINHTHUAN": {
		"name": "T\u1ec9nh B\u00ecnh Thu\u1eadn",
		"cities": {
			"THANHPHOPHANTHIET": "Th\u00e0nh ph\u1ed1 Phan Thi\u1ebft",
			"HUYENTUYPHONG": "Huy\u1ec7n Tuy Phong",
			"HUYENBACBINH": "Huy\u1ec7n B\u1eafc B\u00ecnh",
			"HUYENHAMTHUANBAC": "Huy\u1ec7n H\u00e0m Thu\u1eadn B\u1eafc",
			"HUYENHAMTHUANNAM": "Huy\u1ec7n H\u00e0m Thu\u1eadn Nam",
			"HUYENHAMTAN": "Huy\u1ec7n H\u00e0m T\u00e2n",
			"HUYENDUCLINH": "Huy\u1ec7n \u0110\u1ee9c Linh",
			"HUYENTANHLINH": "Huy\u1ec7n T\u00e1nh Linh",
			"HUYENDAOPHUQUY": "Huy\u1ec7n \u0111\u1ea3o Ph\u00fa Qu\u00fd",
			"THIXALAGI": "Th\u1ecb x\u00e3 La Gi",
			"BINHTHUANKHAC": "Qu\u1eadn/Huy\u1ec7n kh\u00e1c"
		}
	},
	"DONGNAI": {
		"name": "T\u1ec9nh \u0110\u1ed3ng Nai",
		"cities": {
			"THANHPHOBIENHOA": "Th\u00e0nh ph\u1ed1 Bi\u00ean Ho\u00e0",
			"HUYENVINHCUU": "Huy\u1ec7n V\u0129nh C\u1eedu",
			"HUYENTANPHU": "Huy\u1ec7n T\u00e2n Ph\u00fa",
			"HUYENDINHQUAN": "Huy\u1ec7n \u0110\u1ecbnh Qu\u00e1n",
			"HUYENTHONGNHAT": "Huy\u1ec7n Th\u1ed1ng Nh\u1ea5t",
			"THIXALONGKHANH": "Th\u1ecb x\u00e3 Long Kh\u00e1nh",
			"HUYENXUANLOC": "Huy\u1ec7n Xu\u00e2n L\u1ed9c",
			"HUYENLONGTHANH": "Huy\u1ec7n Long Th\u00e0nh",
			"HUYENNHONTRACH": "Huy\u1ec7n Nh\u01a1n Tr\u1ea1ch",
			"HUYENTRANGBOM": "Huy\u1ec7n Tr\u1ea3ng Bom",
			"HUYENCAMMY": "Huy\u1ec7n C\u1ea9m M\u1ef9",
			"DONGNAIKHAC": "Qu\u1eadn/Huy\u1ec7n kh\u00e1c"
		}
	},
	"LONGAN": {
		"name": "T\u1ec9nh Long An",
		"cities": {
			"THANHPHOTANAN": "Th\u00e0nh ph\u1ed1 T\u00e2n An",
			"HUYENVINHHUNG": "Huy\u1ec7n V\u0129nh H\u01b0ng",
			"HUYENMOCHOA": "Huy\u1ec7n M\u1ed9c Ho\u00e1",
			"HUYENTANTHANH": "Huy\u1ec7n T\u00e2n Th\u1ea1nh",
			"HUYENTHANHHOA": "Huy\u1ec7n Th\u1ea1nh Ho\u00e1",
			"HUYENDUCHUE": "Huy\u1ec7n \u0110\u1ee9c Hu\u1ec7",
			"HUYENDUCHOA": "Huy\u1ec7n \u0110\u1ee9c Ho\u00e0",
			"HUYENBENLUC": "Huy\u1ec7n B\u1ebfn L\u1ee9c",
			"HUYENTHUTHUA": "Huy\u1ec7n Th\u1ee7 Th\u1eeba",
			"HUYENCHAUTHANH": "Huy\u1ec7n Ch\u00e2u Th\u00e0nh",
			"HUYENTANTRU": "Huy\u1ec7n T\u00e2n Tr\u1ee5",
			"HUYENCANDUOC": "Huy\u1ec7n C\u1ea7n \u0110\u01b0\u1edbc",
			"HUYENCANGIUOC": "Huy\u1ec7n C\u1ea7n Giu\u1ed9c",
			"HUYENTANHUNG": "Huy\u1ec7n T\u00e2n H\u01b0ng",
			"THIXAKIENTUONG": "Th\u1ecb x\u00e3 Ki\u1ebfn T\u01b0\u1eddng",
			"LONGANKHAC": "Qu\u1eadn/Huy\u1ec7n kh\u00e1c"
		}
	},
	"DONGTHAP": {
		"name": "T\u1ec9nh \u0110\u1ed3ng Th\u00e1p",
		"cities": {
			"THANHPHOCAOLANH": "Th\u00e0nh ph\u1ed1 Cao L\u00e3nh",
			"THANHPHOSADEC": "Th\u00e0nh ph\u1ed1 Sa \u0110\u00e9c",
			"HUYENTANHONG": "Huy\u1ec7n T\u00e2n H\u1ed3ng",
			"HUYENHONGNGU": "Huy\u1ec7n H\u1ed3ng Ng\u1ef1",
			"HUYENTAMNONG": "Huy\u1ec7n Tam N\u00f4ng",
			"HUYENTHANHBINH": "Huy\u1ec7n Thanh B\u00ecnh",
			"HUYENCAOLANH": "Huy\u1ec7n Cao L\u00e3nh",
			"HUYENLAPVO": "Huy\u1ec7n L\u1ea5p V\u00f2",
			"HUYENTHAPMUOI": "Huy\u1ec7n Th\u00e1p M\u01b0\u1eddi",
			"HUYENLAIVUNG": "Huy\u1ec7n Lai Vung",
			"HUYENCHAUTHANH": "Huy\u1ec7n Ch\u00e2u Th\u00e0nh",
			"THIXAHONGNGU": "Th\u1ecb X\u00e3 H\u1ed3ng Ng\u1ef1",
			"DONGTHAPKHAC": "Qu\u1eadn/Huy\u1ec7n kh\u00e1c"
		}
	},
	"ANGIANG": {
		"name": "T\u1ec9nh An Giang",
		"cities": {
			"THANHPHOLONGXUYEN": "Th\u00e0nh ph\u1ed1 Long Xuy\u00ean",
			"THIXACHAUDOC": "Th\u1ecb x\u00e3 Ch\u00e2u \u0110\u1ed1c",
			"HUYENANPHU": "Huy\u1ec7n An Ph\u00fa",
			"HUYENTANCHAU": "Huy\u1ec7n T\u00e2n Ch\u00e2u",
			"HUYENPHUTAN": "Huy\u1ec7n Ph\u00fa T\u00e2n",
			"HUYENTINHBIEN": "Huy\u1ec7n T\u1ecbnh Bi\u00ean",
			"HUYENTRITON": "Huy\u1ec7n Tri T\u00f4n",
			"HUYENCHAUPHU": "Huy\u1ec7n Ch\u00e2u Ph\u00fa",
			"HUYENCHOMOI": "Huy\u1ec7n Ch\u1ee3 M\u1edbi",
			"HUYENCHAUTHANH": "Huy\u1ec7n Ch\u00e2u Th\u00e0nh",
			"HUYENTHOAISON": "Huy\u1ec7n Tho\u1ea1i S\u01a1n",
			"ANGIANGKHAC": "Qu\u1eadn/Huy\u1ec7n kh\u00e1c"
		}
	},
	"BARIAVUNGTAU": {
		"name": "T\u1ec9nh B\u00e0 R\u1ecba V\u0169ng T\u00e0u",
		"cities": {
			"THANHPHOVUNGTAU": "Th\u00e0nh ph\u1ed1 V\u0169ng T\u00e0u",
			"THANHPHOBARIA": "Th\u00e0nh ph\u1ed1 B\u00e0 R\u1ecba",
			"HUYENXUYENMOC": "Huy\u1ec7n Xuy\u00ean M\u1ed9c",
			"HUYENLONGDIEN": "Huy\u1ec7n Long \u0110i\u1ec1n",
			"HUYENCONDAO": "Huy\u1ec7n C\u00f4n \u0110\u1ea3o",
			"HUYENTANTHANH": "Huy\u1ec7n T\u00e2n Th\u00e0nh",
			"HUYENCHAUDUC": "Huy\u1ec7n Ch\u00e2u \u0110\u1ee9c",
			"HUYENDATDO": "Huy\u1ec7n \u0110\u1ea5t \u0110\u1ecf",
			"BARIAVUNGTAUKHAC": "Qu\u1eadn/Huy\u1ec7n kh\u00e1c"
		}
	},
	"TIENGIANG": {
		"name": "T\u1ec9nh Ti\u1ec1n Giang",
		"cities": {
			"THANHPHOMYTHO": "Th\u00e0nh ph\u1ed1 M\u1ef9 Tho",
			"THIXAGOCONG": "Th\u1ecb x\u00e3 G\u00f2 C\u00f4ng",
			"HUYENCAIBE": "Huy\u1ec7n C\u00e1i b\u00e8",
			"HUYENCAILAY": "Huy\u1ec7n Cai l\u1eady",
			"HUYENCHAUTHANH": "Huy\u1ec7n Ch\u00e2u th\u00e0nh",
			"HUYENCHOGAO": "Huy\u1ec7n Ch\u1ee3 G\u1ea1o",
			"HUYENGOCONGTAY": "Huy\u1ec7n G\u00f2 C\u00f4ng T\u00e2y",
			"HUYENGOCONGDONG": "Huy\u1ec7n G\u00f2 C\u00f4ng \u0110\u00f4ng",
			"HUYENTANPHUOC": "Huy\u1ec7n T\u00e2n Ph\u01b0\u1edbc",
			"HUYENTANPHUDONG": "Huy\u1ec7n T\u00e2n Ph\u00fa \u0110\u00f4ng",
			"TIENGIANGKHAC": "Qu\u1eadn/Huy\u1ec7n kh\u00e1c"
		}
	},
	"KIENGIANG": {
		"name": "T\u1ec9nh Ki\u00ean Giang",
		"cities": {
			"THANHPHORACHGIA": "Th\u00e0nh ph\u1ed1 R\u1ea1ch Gi\u00e1",
			"THIXAHATIEN": "Th\u1ecb x\u00e3 H\u00e0 Ti\u00ean",
			"HUYENKIENLUONG": "Huy\u1ec7n Ki\u00ean L\u01b0\u01a1ng",
			"HUYENHONDAT": "Huy\u1ec7n H\u00f2n \u0110\u1ea5t",
			"HUYENTANHIEP": "Huy\u1ec7n T\u00e2n Hi\u1ec7p",
			"HUYENCHAUTHANH": "Huy\u1ec7n Ch\u00e2u Th\u00e0nh",
			"HUYENGIONGRIENG": "Huy\u1ec7n Gi\u1ed3ng Ri\u1ec1ng",
			"HUYENGOQUAO": "Huy\u1ec7n G\u00f2 Quao",
			"HUYENANBIEN": "Huy\u1ec7n An Bi\u00ean",
			"HUYENANMINH": "Huy\u1ec7n An Minh",
			"HUYENVINHTHUAN": "Huy\u1ec7n V\u0129nh Thu\u1eadn",
			"HUYENPHUQUOC": "Huy\u1ec7n Ph\u00fa Qu\u1ed1c",
			"HUYENKIENHAI": "Huy\u1ec7n Ki\u00ean H\u1ea3i",
			"HUYENUMINHTHUONG": "Huy\u1ec7n U Minh Th\u01b0\u1ee3ng",
			"HUYENGIANGTHANH": "Huy\u1ec7n Giang Th\u00e0nh",
			"KIENGIANGKHAC": "Qu\u1eadn/Huy\u1ec7n kh\u00e1c"
		}
	},
	"TRAVINH": {
		"name": "T\u1ec9nh Tr\u00e0 Vinh",
		"cities": {
			"THANHPHOTRAVINH": "Th\u00e0nh ph\u1ed1 Tr\u00e0 Vinh",
			"HUYENCANGLONG": "Huy\u1ec7n C\u00e0ng Long",
			"HUYENCAUKE": "Huy\u1ec7n C\u1ea7u K\u00e8",
			"HUYENTIEUCAN": "Huy\u1ec7n Ti\u1ec3u C\u1ea7n",
			"HUYENCHAUTHANH": "Huy\u1ec7n Ch\u00e2u Th\u00e0nh",
			"HUYENTRACU": "Huy\u1ec7n Tr\u00e0 C\u00fa",
			"HUYENCAUNGANG": "Huy\u1ec7n C\u1ea7u Ngang",
			"HUYENDUYENHAI": "Huy\u1ec7n Duy\u00ean H\u1ea3i",
			"TRAVINHKHAC": "Qu\u1eadn/Huy\u1ec7n kh\u00e1c"
		}
	},
	"BENTRE": {
		"name": "T\u1ec9nh B\u1ebfn Tre",
		"cities": {
			"THANHPHOBENTRE": "Th\u00e0nh ph\u1ed1 B\u1ebfn Tre",
			"HUYENCHAUTHANH": "Huy\u1ec7n Ch\u00e2u Th\u00e0nh",
			"HUYENCHOLACH": "Huy\u1ec7n Ch\u1ee3 L\u00e1ch",
			"HUYENMOCAYBAC": "Huy\u1ec7n M\u1ecf C\u00e0y B\u1eafc",
			"HUYENGIONGTROM": "Huy\u1ec7n Gi\u1ed3ng Tr\u00f4m",
			"HUYENBINHDAI": "Huy\u1ec7n B\u00ecnh \u0110\u1ea1i",
			"HUYENBATRI": "Huy\u1ec7n Ba Tri",
			"HUYENTHANHPHU": "Huy\u1ec7n Th\u1ea1nh Ph\u00fa",
			"HUYENMOCAYNAM": "Huy\u1ec7n M\u1ecf C\u00e0y Nam",
			"BENTREKHAC": "Qu\u1eadn/Huy\u1ec7n kh\u00e1c"
		}
	},
	"VINHLONG": {
		"name": "T\u1ec9nh V\u0129nh Long",
		"cities": {
			"THANHPHOVINHLONG": "Th\u00e0nh ph\u1ed1 V\u0129nh Long",
			"HUYENLONGHO": "Huy\u1ec7n Long H\u1ed3",
			"HUYENMANGTHIT": "Huy\u1ec7n Mang Th\u00edt",
			"THIXABINHMINH": "Th\u1ecb x\u00e3 B\u00ecnh Minh",
			"HUYENTAMBINH": "Huy\u1ec7n Tam B\u00ecnh",
			"HUYENTRAON": "Huy\u1ec7n Tr\u00e0 \u00d4n",
			"HUYENVUNGLIEM": "Huy\u1ec7n V\u0169ng Li\u00eam",
			"HUYENBINHTAN": "Huy\u1ec7n B\u00ecnh T\u00e2n",
			"VINHLONGKHAC": "Qu\u1eadn/Huy\u1ec7n kh\u00e1c"
		}
	},
	"SOCTRANG": {
		"name": "T\u1ec9nh S\u00f3c Tr\u0103ng",
		"cities": {
			"THANHPHOSOCTRANG": "Th\u00e0nh ph\u1ed1 S\u00f3c Tr\u0103ng",
			"HUYENKESACH": "Huy\u1ec7n K\u1ebf S\u00e1ch",
			"HUYENMYTU": "Huy\u1ec7n M\u1ef9 T\u00fa",
			"HUYENMYXUYEN": "Huy\u1ec7n M\u1ef9 Xuy\u00ean",
			"HUYENTHANHTRI": "Huy\u1ec7n Th\u1ea1nh Tr\u1ecb",
			"HUYENLONGPHU": "Huy\u1ec7n Long Ph\u00fa",
			"THIXAVINHCHAU": "Th\u1ecb x\u00e3 V\u0129nh Ch\u00e2u",
			"HUYENCULAODUNG": "Huy\u1ec7n C\u00f9 Lao Dung",
			"HUYENNGANAM": "Huy\u1ec7n Ng\u00e3 N\u0103m",
			"HUYENCHAUTHANH": "Huy\u1ec7n Ch\u00e2u Th\u00e0nh",
			"HUYENTRANDE": "Huy\u1ec7n Tr\u1ea7n \u0110\u1ec1",
			"SOCTRANGKHAC": "Qu\u1eadn/Huy\u1ec7n kh\u00e1c"
		}
	},
	"BACLIEU": {
		"name": "T\u1ec9nh B\u1ea1c Li\u00eau",
		"cities": {
			"THANHPHOBACLIEU": "Th\u00e0nh ph\u1ed1 B\u1ea1c Li\u00eau",
			"HUYENVINHLOI": "Huy\u1ec7n V\u0129nh L\u1ee3i",
			"HUYENHONGDAN": "Huy\u1ec7n H\u1ed3ng D\u00e2n",
			"HUYENGIARAI": "Huy\u1ec7n Gi\u00e1 Rai",
			"HUYENPHUOCLONG": "Huy\u1ec7n Ph\u01b0\u1edbc Long",
			"HUYENDONGHAI": "Huy\u1ec7n \u0110\u00f4ng H\u1ea3i",
			"HUYENHOABINH": "Huy\u1ec7n Ho\u00e0 B\u00ecnh",
			"BACLIEUKHAC": "Qu\u1eadn/Huy\u1ec7n kh\u00e1c"
		}
	},
	"CAMAU": {
		"name": "T\u1ec9nh C\u00e0 Mau",
		"cities": {
			"THANHPHOCAMAU": "Th\u00e0nh ph\u1ed1 C\u00e0 Mau",
			"HUYENTHOIBINH": "Huy\u1ec7n Th\u1edbi B\u00ecnh",
			"HUYENUMINH": "Huy\u1ec7n U Minh",
			"HUYENTRANVANTHOI": "Huy\u1ec7n Tr\u1ea7n V\u0103n Th\u1eddi",
			"HUYENCAINUOC": "Huy\u1ec7n C\u00e1i N\u01b0\u1edbc",
			"HUYENDAMDOI": "Huy\u1ec7n \u0110\u1ea7m D\u01a1i",
			"HUYENNGOCHIEN": "Huy\u1ec7n Ng\u1ecdc Hi\u1ec3n",
			"HUYENNAMCAN": "Huy\u1ec7n N\u0103m C\u0103n",
			"HUYENPHUTAN": "Huy\u1ec7n Ph\u00fa T\u00e2n",
			"CAMAUKHAC": "Qu\u1eadn/Huy\u1ec7n kh\u00e1c"
		}
	},
	"DIENBIEN": {
		"name": "T\u1ec9nh \u0110i\u1ec7n Bi\u00ean",
		"cities": {
			"TP.DIENBIENPHU": "TP. \u0110i\u1ec7n Bi\u00ean Ph\u1ee7",
			"THIXAMUONGLAY": "Th\u1ecb x\u00e3 M\u01b0\u1eddng Lay",
			"HUYENDIENBIEN": "Huy\u1ec7n \u0110i\u1ec7n Bi\u00ean",
			"HUYENTUANGIAO": "Huy\u1ec7n Tu\u1ea7n Gi\u00e1o",
			"HUYENMUONGCHA": "Huy\u1ec7n M\u01b0\u1eddng Ch\u00e0",
			"HUYENTUACHUA": "Huy\u1ec7n T\u1ee7a Ch\u00f9a",
			"HUYENDIENBIENDONG": "Huy\u1ec7n \u0110i\u1ec7n Bi\u00ean \u0110\u00f4ng",
			"HUYENMUONGNHE": "Huy\u1ec7n M\u01b0\u1eddng Nh\u00e9",
			"HUYENMUONGANG": "Huy\u1ec7n M\u01b0\u1eddng \u1ea2ng",
			"DIENBIENKHAC": "Qu\u1eadn/Huy\u1ec7n kh\u00e1c"
		}
	},
	"DAKNONG": {
		"name": "T\u1ec9nh \u0110\u1eafk N\u00f4ng",
		"cities": {
			"THIXAGIANGHIA": "Th\u1ecb x\u00e3 Gia Ngh\u0129a",
			"HUYENDAKRLAP": "Huy\u1ec7n \u0110\u0103k RL\u1ea5p",
			"HUYENDAKMIL": "Huy\u1ec7n \u0110\u0103k Mil",
			"HUYENCUJUT": "Huy\u1ec7n C\u01b0 J\u00fat",
			"HUYENDAKSONG": "Huy\u1ec7n \u0110\u0103k Song",
			"HUYENKRONGNO": "Huy\u1ec7n Kr\u00f4ng N\u00f4",
			"HUYENDAKGLONG": "Huy\u1ec7n \u0110\u0103k GLong",
			"HUYENTUYDUC": "Huy\u1ec7n Tuy \u0110\u1ee9c",
			"DAKNONGKHAC": "Qu\u1eadn/Huy\u1ec7n kh\u00e1c"
		}
	},
	"HAUGIANG": {
		"name": "T\u1ec9nh H\u1eadu Giang",
		"cities": {
			"THANHPHOVITHANH": "Th\u00e0nh ph\u1ed1 V\u1ecb Thanh",
			"HUYENVITHUY": "Huy\u1ec7n V\u1ecb Thu\u1ef7",
			"HUYENLONGMY": "Huy\u1ec7n Long M\u1ef9",
			"HUYENPHUNGHIEP": "Huy\u1ec7n Ph\u1ee5ng Hi\u1ec7p",
			"HUYENCHAUTHANH": "Huy\u1ec7n Ch\u00e2u Th\u00e0nh",
			"HUYENCHAUTHANHA": "Huy\u1ec7n Ch\u00e2u Th\u00e0nh A",
			"THIXANGABAY": "Th\u1ecb x\u00e3 Ng\u00e3 B\u1ea3y",
			"HAUGIANGKHAC": "Qu\u1eadn/Huy\u1ec7n kh\u00e1c"
		}
	}
}
